digraph  {
rest [notes="[<music21.note.Rest rest>, <music21.note.Rest rest>, <music21.note.Rest rest>, <music21.note.Rest rest>, <music21.note.Rest rest>, <music21.note.Rest rest>]"];
"G#3" [notes="[<music21.note.Note G#>, <music21.note.Note G#>, <music21.note.Note G#>]"];
G3 [notes="[<music21.note.Note G>, <music21.note.Note G>, <music21.note.Note G>, <music21.note.Note G>, <music21.note.Note G>, <music21.note.Note G>]"];
F3 [notes="[<music21.note.Note F>, <music21.note.Note F>, <music21.note.Note F>, <music21.note.Note F>, <music21.note.Note F>, <music21.note.Note F>, <music21.note.Note F>, <music21.note.Note F>]"];
"E-3" [notes="[<music21.note.Note E->, <music21.note.Note E->, <music21.note.Note E->, <music21.note.Note E->, <music21.note.Note E->, <music21.note.Note E->, <music21.note.Note E->, <music21.note.Note E->, <music21.note.Note E->, <music21.note.Note E->, <music21.note.Note E->, <music21.note.Note E->]"];
D3 [notes="[<music21.note.Note D>, <music21.note.Note D>, <music21.note.Note D>, <music21.note.Note D>, <music21.note.Note D>, <music21.note.Note D>, <music21.note.Note D>, <music21.note.Note D>, <music21.note.Note D>, <music21.note.Note D>, <music21.note.Note D>, <music21.note.Note D>, <music21.note.Note D>, <music21.note.Note D>, <music21.note.Note D>, <music21.note.Note D>, <music21.note.Note D>, <music21.note.Note D>, <music21.note.Note D>, <music21.note.Note D>, <music21.note.Note D>, <music21.note.Note D>, <music21.note.Note D>, <music21.note.Note D>, <music21.note.Note D>, <music21.note.Note D>, <music21.note.Note D>, <music21.note.Note D>, <music21.note.Note D>, <music21.note.Note D>]"];
C3 [notes="[<music21.note.Note C>, <music21.note.Note C>, <music21.note.Note C>, <music21.note.Note C>, <music21.note.Note C>, <music21.note.Note C>, <music21.note.Note C>, <music21.note.Note C>, <music21.note.Note C>, <music21.note.Note C>, <music21.note.Note C>, <music21.note.Note C>, <music21.note.Note C>, <music21.note.Note C>, <music21.note.Note C>, <music21.note.Note C>, <music21.note.Note C>, <music21.note.Note C>, <music21.note.Note C>, <music21.note.Note C>, <music21.note.Note C>, <music21.note.Note C>, <music21.note.Note C>, <music21.note.Note C>, <music21.note.Note C>, <music21.note.Note C>, <music21.note.Note C>]"];
B2 [notes="[<music21.note.Note B>, <music21.note.Note B>, <music21.note.Note B>, <music21.note.Note B>, <music21.note.Note B>, <music21.note.Note B>, <music21.note.Note B>, <music21.note.Note B>, <music21.note.Note B>, <music21.note.Note B>, <music21.note.Note B>, <music21.note.Note B>, <music21.note.Note B>, <music21.note.Note B>, <music21.note.Note B>]"];
G2 [notes="[<music21.note.Note G>, <music21.note.Note G>, <music21.note.Note G>, <music21.note.Note G>, <music21.note.Note G>, <music21.note.Note G>]"];
A2 [notes="[<music21.note.Note A>, <music21.note.Note A>, <music21.note.Note A>, <music21.note.Note A>, <music21.note.Note A>, <music21.note.Note A>, <music21.note.Note A>, <music21.note.Note A>, <music21.note.Note A>]"];
E3 [notes="[<music21.note.Note E>, <music21.note.Note E>, <music21.note.Note E>]"];
"F#3" [notes="[<music21.note.Note F#>, <music21.note.Note F#>, <music21.note.Note F#>]"];
A3 [notes="[<music21.note.Note A>, <music21.note.Note A>, <music21.note.Note A>]"];
B3 [notes="[<music21.note.Note B>, <music21.note.Note B>, <music21.note.Note B>, <music21.note.Note B>, <music21.note.Note B>]"];
C4 [notes="[<music21.note.Note C>, <music21.note.Note C>, <music21.note.Note C>]"];
rest -> "G#3"  [w=1];
rest -> D3  [w=3];
rest -> F3  [w=2];
"G#3" -> G3  [w=3];
G3 -> F3  [w=3];
G3 -> A3  [w=3];
F3 -> "E-3"  [w=3];
F3 -> "F#3"  [w=3];
F3 -> "G#3"  [w=2];
"E-3" -> D3  [w=6];
"E-3" -> C3  [w=3];
"E-3" -> A2  [w=3];
D3 -> D3  [w=3];
D3 -> C3  [w=12];
D3 -> "E-3"  [w=9];
D3 -> G2  [w=3];
D3 -> E3  [w=3];
C3 -> D3  [w=18];
C3 -> B2  [w=9];
B2 -> C3  [w=12];
B2 -> G2  [w=3];
G2 -> A2  [w=6];
A2 -> B2  [w=6];
A2 -> rest  [w=3];
E3 -> F3  [w=3];
"F#3" -> G3  [w=3];
A3 -> B3  [w=3];
B3 -> C4  [w=3];
B3 -> rest  [w=2];
C4 -> B3  [w=2];
}
